{
  "HomeMain": [
    {
      "id": 1,
      "homeTitle": "Front-End Developer & Photographer",
      "homeDescription": "Hi , I´m Pedro Rodriguez, Front-End Developer & Photographer. Photograhpy is my career but I always wanted to dive deep into the web developing universe so during 2020 I started coding with the lessons on UpgradeHub Bootcamp and i´m very happy to introduce you the first website ever developed by me. It has been developed on Angular and here is a brief presentation of my code mixed with my photography portfolio. I hope you enjoy! ☺️",
      "imageTitle": "Water Drops I",
      "imageDescription": "Descripción de foto",
      "imagePrimaryUrl": "./assets/img/portfolio_01.jpg",
      "imagePrimaryAlt": "alt"
    }
  ],
  "HomeAbout": [
    {
      "id": 1,
      "homeAboutTitle": "About me",
      "homeAboutDescription": "Hi again, here i´m going to talk about my experience as a Front end Developer and as a Photographer. Photography is my main career, I started shooting when i was around 15 years old and since then the camera is the perfect tool to show my vision of the world that surrounds me. As the years went by I decided to do a carrer in photography, studied photography and graphic design at the school of Arts in Oviedo (Asturias, Spain)  and then specialized in product photography, I  always kept doing my personal work for the rejoice that gives to me. At this time I´m working at fotografía E-commerce, a studio specialized in product photography taking pictures for all kinds of brands and genres you can imagine, jewlery, clothing, food, and so on. In 2020 I decided to jump into de web developement world becaouse I been seen the power that could bring for any enterprise or person that wants to be on line and the biggest motivation for me to start coding si to build apps and websites with mi experience on e-commerce and artistic vision. Thanks for reading!",
      "imageTitle": "Foto Perfil",
      "imageUrl": "./assets/img/portfolio_03.jpg",
      "profileImage": "./assets/img/portfolio_02.jpg"
    }
  ],
  "Rrss": [
    {
      "id": 1,
      "iconUrl": "./assets/svg",
      "iconAlt": "Facebook"
    },
    {
      "id": 2,
      "iconUrl": "https://cdn3.iconfinder.com/data/icons/picons-social/57/43-twitter-512.png",
      "iconAlt": "Twitter"
    },
    {
      "id": 3,
      "iconUrl": "https://image.flaticon.com/icons/png/512/87/87390.png",
      "iconAlt": "Instagram"
    }
  ],
  "ContactForm": [
    {
      "id": 1,
      "name": "Contact",
      "formDescription": "For any request about front end web developing, photography, or any other subject.",
      "imageUrl": "./assets/img/portfolio_04.jpg"
    }
  ],
  "RegisteredUser": [
    {
      "id": 1,
      "name": "",
      "surname": "",
      "email": "",
      "message": "ajsbajfapf asfkfabpjsf asfhapiwhyigwrb"
    },
    {
      "name": "pedro",
      "surname": "rodriguez",
      "email": "pedrocasina@gmail.com",
      "message": "hola",
      "id": 2
    },
    {
      "name": "pedro",
      "surname": "mendez",
      "email": "pedro@mail.com",
      "message": "adios\n",
      "id": 3
    },
    {
      "name": "Pedro",
      "surname": "Rodriguez",
      "email": "p@mail.com",
      "message": "Hola",
      "subject": "Choose Subject",
      "id": 4
    },
    {
      "name": "Pedro",
      "surname": "Rodriguez",
      "email": "p@mail.com",
      "message": "hola k ase",
      "subject": "Choose Subject",
      "id": 5
    },
    {
      "name": "pedro",
      "surname": "rodri",
      "email": "o@mail.com",
      "message": "ooo",
      "subject": "Choose Subject",
      "id": 6
    },
    {
      "name": "Pedro",
      "surname": "rodrigurx",
      "email": "p@p.com",
      "message": "aaaa\n",
      "subject": "Choose Subject",
      "id": 7
    }
  ],
  "GalleryFirst": [
    {
      "id": 1,
      "gallerytitle": "TITULO Water Drops",
      "galleryDescription": "Descripción Lorem Ipsum",
      "imageTitle": "",
      "imageDescription": "Descripción de foto",
      "imageUrl": "./assets/img/portfolio_17.jpg"
    },
    {
      "id": 2,
      "imageTitle": "",
      "imageDescription": "Descripción de foto",
      "imageUrl": "./assets/img/portfolio_18.jpg"
    },
    {
      "id": 3,
      "imageTitle": "",
      "imageDescription": "Descripción de foto",
      "imageUrl": "./assets/img/portfolio_19.jpg"
    },
    {
      "id": 4,
      "imageTitle": "",
      "imageDescription": "Descripción de foto",
      "imageUrl": "./assets/img/portfolio_20.jpg"
    },
    {
      "id": 5,
      "imageTitle": "",
      "imageDescription": "Descripción de foto",
      "imageUrl": "./assets/img/portfolio_22.jpg"
    },
    {
      "id": 6,
      "imageTitle": "",
      "imageDescription": "Descripción de foto",
      "imageUrl": "./assets/img/portfolio_27.jpg"
    },
    {
      "id": 7,
      "imageTitle": "",
      "imageDescription": "Descripción de foto",
      "imageUrl": "./assets/img/portfolio_29.jpg"
    },
    {
      "id": 8,
      "imageTitle": "",
      "imageDescription": "Descripción de foto",
      "imageUrl": "url"
    },
    {
      "id": 9,
      "imageTitle": "",
      "imageDescription": "Descripción de foto",
      "imageUrl": "./assets/img/portfolio_31.jpg"
    }
  ],
  "GallerySecond": [
    {
      "id": 1,
      "galleryTitle": "Water Drops",
      "galleryDescription": "This series of photographs are inspired by Jackson Pollock, creator of the active painting, based on random drops of paint, in this case the drops are created by the sea in a very backwashed day.",
      "imageTitle": "",
      "imageDescription": "Descripción de foto",
      "imageUrl": "./assets/img/portfolio_04.jpg"
    },
    {
      "id": 2,
      "imageTitle": "",
      "imageDescription": "Descripción de foto",
      "imageUrl": "./assets/img/portfolio_06.jpg"
    },
    {
      "id": 3,
      "imageTitle": "",
      "imageDescription": "Descripción de foto",
      "imageUrl": "./assets/img/portfolio_20.jpg"
    },
    {
      "id": 4,
      "imageTitle": "",
      "imageDescription": "Descripción de foto",
      "imageUrl": "./assets/img/portfolio_21.jpg"
    },
    {
      "id": 5,
      "imageTitle": "",
      "imageDescription": "Descripción de foto",
      "imageUrl": "./assets/img/portfolio_22.jpg"
    },
    {
      "id": 6,
      "imageTitle": "",
      "imageDescription": "Descripción de foto",
      "imageUrl": "./assets/img/portfolio_23.jpg"
    },
    {
      "id": 7,
      "imageTitle": "",
      "imageDescription": "Descripción de foto",
      "imageUrl": "./assets/img/portfolio_24.jpg"
    },
    {
      "id": 8,
      "imageTitle": "",
      "imageDescription": "Descripción de foto",
      "imageUrl": "./assets/img/portfolio_25.jpg"
    },
    {
      "id": 9,
      "imageTitle": "",
      "imageDescription": "Descripción de foto",
      "imageUrl": "./assets/img/portfolio_26.jpg"
    }
  ],
  "GalleryThird": [
    {
      "id": 1,
      "galleryTitle": "Waves",
      "galleryDescription": "Surf is my favourite sport to practise and also to photograph. To be able to capture the beauty of wave that just lasts for a glimpse of an eye is one of my favourite games in photography, to chase that perfect moment",
      "imageTitle": "",
      "imageDescription": "Descripción de foto",
      "imageUrl": "./assets/img/portfolio_03.jpg"
    },
    {
      "id": 2,
      "imageTitle": "",
      "imageDescription": "Descripción de foto",
      "imageUrl": "./assets/img/portfolio_12.jpg"
    },
    {
      "id": 3,
      "imageTitle": "",
      "imageDescription": "Descripción de foto",
      "imageUrl": "./assets/img/portfolio_17.jpg"
    },
    {
      "id": 4,
      "imageTitle": "",
      "imageDescription": "Descripción de foto",
      "imageUrl": "./assets/img/portfolio_19.jpg"
    },
    {
      "id": 5,
      "imageTitle": "",
      "imageDescription": "Descripción de foto",
      "imageUrl": "./assets/img/portfolio_31.jpg"
    },
    {
      "id": 6,
      "imageTitle": "",
      "imageDescription": "Descripción de foto",
      "imageUrl": "./assets/img/portfolio_29.jpg"
    },
    {
      "id": 7,
      "imageTitle": "",
      "imageDescription": "Descripción de foto",
      "imageUrl": "./assets/img/portfolio_30.jpg"
    },
    {
      "id": 8,
      "imageTitle": "",
      "imageDescription": "Descripción de foto",
      "imageUrl": "./assets/img/portfolio_28.jpg"
    },
    {
      "id": 9,
      "imageTitle": "",
      "imageDescription": "Descripción de foto",
      "imageUrl": "./assets/img/portfolio_27.jpg"
    }
  ],
  "GalleryFourth": [
    {
      "id": 1,
      "galleryTitle": "Home",
      "galleryDescription": "At home is where i get most inspired, I´m very lucky to call Ribadesella my hometown, a little village in between the mountains and the sea. In one day you can climb a mountain and swim in the sea, so it is very unique enviroment if you like outdoor sports, wildlife and lanscapes.",
      "imageTitle": "",
      "imageDescription": "Descripción de foto",
      "imageUrl": "./assets/img/portfolio_39.jpg"
    },
    {
      "id": 2,
      "imageTitle": "",
      "imageDescription": "Descripción de foto",
      "imageUrl": "./assets/img/portfolio_40.jpg"
    },
    {
      "id": 3,
      "imageTitle": "",
      "imageDescription": "Descripción de foto",
      "imageUrl": "./assets/img/portfolio_41.jpg"
    },
    {
      "id": 4,
      "imageTitle": "",
      "imageDescription": "Descripción de foto",
      "imageUrl": "./assets/img/portfolio_42.jpg"
    },
    {
      "id": 5,
      "imageTitle": "",
      "imageDescription": "Descripción de foto",
      "imageUrl": "./assets/img/portfolio_11.jpg"
    },
    {
      "id": 6,
      "imageTitle": "",
      "imageDescription": "Descripción de foto",
      "imageUrl": "./assets/img/portfolio_44.jpg"
    },
    {
      "id": 7,
      "imageTitle": "",
      "imageDescription": "Descripción de foto",
      "imageUrl": "./assets/img/portfolio_45.jpg"
    },
    {
      "id": 8,
      "imageTitle": "",
      "imageDescription": "Descripción de foto",
      "imageUrl": "./assets/img/portfolio_43.jpg"
    },
    {
      "id": 9,
      "imageTitle": "",
      "imageDescription": "Descripción de foto",
      "imageUrl": "./assets/img/portfolio_46.jpg"
    }
  ]
}